%YAML 1.1
%TAG !u! tag:unity3d.com,2011:
--- !u!114 &11400000
MonoBehaviour:
  m_ObjectHideFlags: 0
  m_CorrespondingSourceObject: {fileID: 0}
  m_PrefabInstance: {fileID: 0}
  m_PrefabAsset: {fileID: 0}
  m_GameObject: {fileID: 0}
  m_Enabled: 1
  m_EditorHideFlags: 0
  m_Script: {fileID: 11500000, guid: 79db7b02dc1cfcb47bc7f52196a910af, type: 3}
  m_Name: Enclosure_Cramped
  m_EditorClassIdentifier: 
  type: {fileID: 11400000, guid: 776f17682c585f14a826e684c271cc8a, type: 2}
  part: {fileID: 8112435371937569479, guid: b8a93ea3c322f5c4c9757a1b2bd2cbcd, type: 3}
  entrys:
  - plug: {fileID: 11400000, guid: 194d206fff9bd26428063cc7fcb77819, type: 2}
    shape: Removed
  - plug: {fileID: 11400000, guid: 928730acd7e0b304487a41471fed4431, type: 2}
    shape: Open
  - plug: {fileID: 11400000, guid: a8caac80aa29e7d48906f8d54f0e95d5, type: 2}
    shape: Closed
  - plug: {fileID: 11400000, guid: 286c4f35248d89f45b872c9acf095df8, type: 2}
    shape: Single Door
  - plug: {fileID: 11400000, guid: ce8d38441af46144284c50ff60b5de7d, type: 2}
    shape: Framed
