# ProBuilder 4.2.3
# https://unity3d.com/unity/features/worldbuilding/probuilder
# 4/10/2020 5:13:24 PM

mtllib ./3x3m_Floor.mtl
o 3x3m_Floor

g 3x3m_Floor
v 3 0 -3
v 3 0 0
v 0 0 -3
v 0 0 0

vt 0 0
vt 0 0.375
vt 0.375 0
vt 0.375 0.375

vn 0 1 0

usemtl Default-Material
f 3/3/1 4/4/1 2/2/1 1/1/1

