# ProBuilder 4.2.3
# https://unity3d.com/unity/features/worldbuilding/probuilder
# 4/10/2020 5:19:48 PM

mtllib ./4x4m_Floor.mtl
o 4x4m_Floor

g 4x4m_Floor
v 4 0 -4
v 4 0 0
v 0 0 -4
v 0 0 0

vt 0 0
vt 0 0.5
vt 0.5 0
vt 0.5 0.5

vn 0 1 0

usemtl Default-Material
f 3/3/1 4/4/1 2/2/1 1/1/1

